…
> head(g1_gather_merged_name)
# A tibble: 6 × 10
  nt_id           length var   value     V2 V4    V5    parent_id rank  tax_name
  <chr>            <dbl> <chr> <dbl>  <dbl> <chr> <chr>     <dbl> <chr> <chr>   
1 G1PA_S02C1_0_2…    304 S02C…     4 2.70e6 NA    NA        33634 supe… Ochroph…
2 G1PA_S02C1_0_2…    351 S02C…     1 2.86e3 HECT  PF00…     33630 class Dinophy…
3 G1PA_S02C1_0_2…    310 S02C…     7 1.09e5 NA    NA         2924 spec… Alexand…
4 G1PA_S02C1_0_2…    322 S02C…     7 2.76e3 NA    NA       131567 supe… Eukaryo…
5 G1PA_S02C1_0_2…    309 S02C…    16 6.84e3 NA    NA         6836 spec… Calanus…
6 G1PA_S02C1_0_2…    325 S02C…     2 2.76e3 NAC   PF01…    131567 supe… Eukaryo…

> g1_gather_merged_name %>% filter(is.na(tax_name)) 
# A tibble: 474,154 × 10
   nt_id          length var   value     V2 V4    V5    parent_id rank  tax_name
   <chr>           <dbl> <chr> <dbl>  <dbl> <chr> <chr>     <dbl> <chr> <chr>   
 1 G1PA_S02C1_0_…    392 S02C…     8 1.87e5 NA    NA           NA NA    NA      
 2 G1PA_S02C1_0_…    366 S02C…    10 2.81e6 NA    NA           NA NA    NA      
 3 G1PA_S02C1_0_…    536 S02C…     1 2.81e6 NA    NA           NA NA    NA      
 4 G1PA_S02C1_0_…    503 S02C…     8 2   e0 NA    NA           NA NA    NA      
 5 G1PA_S02C1_0_…    330 S02C…     5 8.09e4 NA    NA           NA NA    NA      
 6 G1PA_S02C1_0_…    377 S02C…     6 3.64e5 NA    NA           NA NA    NA      
 7 G1PA_S02C1_0_…    382 S02C…     3 4.11e5 Lami… PF13…        NA NA    NA      
 8 G1PA_S02C1_0_…    307 S02C…     4 7.82e4 SBP_… PF13…        NA NA    NA      
 9 G1PA_S02C1_0_…    414 S02C…    14 9.32e4 Glut… PF00…        NA NA    NA      
10 G1PA_S02C1_0_…    373 S02C…     6 1.78e6 Bac_… PF08…        NA NA    NA      
# ℹ 474,144 more rows
# ℹ Use `print(n = ...)` to see more rows
…
