…
#loads R on grazer
egthomas@grazer:~/prepareG3$ R

> library(tidyverse)

#loads the concatenated pfam results for the g3 polyA metaT contigs
> res <- read.table("G3_pfamAnnotations")

> str(res$V8)
 num [1:27425617] 57.2 57.1 57 56.7 56.7 56.6 56.4 56.2 54.7 54.4 ...

> res %>% group_by(V1) %>% summarize(n = n()) %>% filter(n > 1)
# A tibble: 4,484,567 × 2
   V1                                    n
   <chr>                             <int>
 1 G3PA.UW1_TRINITY_DN10_c0_g1_i3_4      2
 2 G3PA.UW1_TRINITY_DN10_c0_g1_i5_4      2
 3 G3PA.UW1_TRINITY_DN10_c0_g1_i6_4      2
 4 G3PA.UW1_TRINITY_DN10_c1_g1_i1_5      2
 5 G3PA.UW1_TRINITY_DN10_c1_g1_i11_5     2
 6 G3PA.UW1_TRINITY_DN10_c1_g1_i12_5     2
 7 G3PA.UW1_TRINITY_DN10_c1_g1_i13_5     2
 8 G3PA.UW1_TRINITY_DN10_c1_g1_i3_5      2
 9 G3PA.UW1_TRINITY_DN10_c1_g1_i4_5      2
10 G3PA.UW1_TRINITY_DN10_c1_g1_i5_5      2
# … with 4,484,557 more rows
…
> g3_gather_merged_name_noMissingTaxa %>% filter(is.na(est_counts))
# A tibble: 0 × 18

> g3_gather_merged_name_noMissingTaxa %>% filter(est_counts == 0)
# A tibble: 0 × 18

> g3_gather_merged_name_noMissingTaxa %>% filter(is.na(V5))
# A tibble: 0 × 18

> core <- read_csv("~/MarFERReT.v1.core_genes.csv")

> g3_gather_merged_name_noMissingTaxa %>% distinct(sample)
# A tibble: 60 × 1
   sample   
   <chr>    
 1 G3PA.UW1 
 2 G3PA.UW10
 3 G3PA.UW11
 4 G3PA.UW12
 5 G3PA.UW13
 6 G3PA.UW14
 7 G3PA.UW16
 8 G3PA.UW17
 9 G3PA.UW19
10 G3PA.UW2 
# ℹ 50 more rows
…
> head(g3_summary)
# A tibble: 6 × 5
  sample   tax_id tax_name  V5             tpm
  <chr>     <dbl> <chr>     <chr>        <dbl>
1 G3PA.UW1   2759 Eukaryota PF00001.23    3.83
2 G3PA.UW1   2759 Eukaryota PF00002.26   14.0 
3 G3PA.UW1   2759 Eukaryota PF00003.24    2.01
4 G3PA.UW1   2759 Eukaryota PF00004.31 3548.  
5 G3PA.UW1   2759 Eukaryota PF00005.29 1984.  
6 G3PA.UW1   2759 Eukaryota PF00006.27 1789.  

> g3_summary %>% group_by(sample, tax_name) %>% summarize(tpm = sum(tpm)) %>% distinct(tpm) %>% ungroup() %>% distinct(tpm)
`summarise()` has grouped output by 'sample'. You can override using the `.groups` argument.
# A tibble: 953 × 1
       tpm
     <dbl>
 1 429627.
 2 877310.
 3 527523.
 4 631864.
 5 424467.
 6 750246.
 7 807883.
 8 267261.
 9 178184.
10 636774.
# ℹ 943 more rows
# ℹ Use `print(n = ...)` to see more rows
…
> merg <- merg %>% spread(key = pfam, value = tpm, fill = 0)

> merg %>% select(1:5) %>% head()
# A tibble: 6 × 5
  sample_id tax_name        PF00003 PF00013 PF00022
  <chr>     <chr>             <dbl>   <dbl>   <dbl>
1 G3PA.UW1  Bacillariophyta  654.      30.4   5059.
2 G3PA.UW1  Bilateria         38.5   3166.     427.
3 G3PA.UW1  Calanidae          0     1599.     279.
4 G3PA.UW1  Calanoida          0      786.    3612.
5 G3PA.UW1  Dinophyceae        0      565.     877.
6 G3PA.UW1  Eukaryota          2.01   161.   23185.

> merg %>% distinct(tax_name) %>% filter(!str_detect(tax_name, " ")) 
# A tibble: 22 × 1
   tax_name        
   <chr>           
 1 Bacillariophyta 
 2 Bilateria       
 3 Calanidae       
 4 Calanoida       
 5 Dinophyceae     
 6 Eukaryota       
 7 Eumetazoa       
 8 Gonyaulacales   
 9 Ochrophyta      
10 Prymnesiophyceae
# ℹ 12 more rows
# ℹ Use `print(n = ...)` to see more rows
…
