…
#loads R on grazer
egthomas@grazer:d$ R

> library(tidyverse)

#loads the concatenated pfam results for the g2 polyA metaT contigs
> res <- read.table("../g2DCM/G2_surface/G2_surface_pfamAnnotations")

> str(res$V8)
 num [1:27728680] 56.6 53.9 53.5 53.2 52.7 52.7 52.6 52.6 52.6 52.5 ...

> res %>% group_by(V1) %>% summarize(n = n()) %>% filter(n > 1)
# A tibble: 4,343,120 × 2
   V1                                                    n
   <chr>                                             <int>
 1 G2PA.S02C1.15m.0_2um_TRINITY_DN1000023_c0_g1_i1_3     2
 2 G2PA.S02C1.15m.0_2um_TRINITY_DN1000032_c0_g1_i1_2     2
 3 G2PA.S02C1.15m.0_2um_TRINITY_DN1000066_c0_g2_i1_2     4
 4 G2PA.S02C1.15m.0_2um_TRINITY_DN1000086_c0_g1_i1_2     7
 5 G2PA.S02C1.15m.0_2um_TRINITY_DN1000102_c0_g1_i1_3     4
 6 G2PA.S02C1.15m.0_2um_TRINITY_DN1000102_c0_g1_i2_1     2
 7 G2PA.S02C1.15m.0_2um_TRINITY_DN1000123_c0_g1_i1_3     2
 8 G2PA.S02C1.15m.0_2um_TRINITY_DN1000141_c0_g1_i1_3     5
 9 G2PA.S02C1.15m.0_2um_TRINITY_DN1000229_c0_g1_i1_1     2
10 G2PA.S02C1.15m.0_2um_TRINITY_DN1000270_c0_g1_i1_1     6
# … with 4,343,110 more rows
…
> g2_gather_merged_name_noMissingTaxa %>% filter(is.na(value))
# A tibble: 0 × 16

> g2_gather_merged_name_noMissingTaxa %>% filter(value == 0)
# A tibble: 0 × 16

> g2_gather_merged_name_noMissingTaxa %>% filter(is.na(V5))
# A tibble: 0 × 16

> core <- read_csv("~/MarFERReT.v1.core_genes.csv")

> g2_gather_merged_name_noMissingTaxa %>% distinct(var)
# A tibble: 59 × 1
   var                   
   <chr>                 
 1 G2PA.S11C1.15m.0_2um.C
 2 G2PA.S16C1.15m.0_2um.B
 3 G2PA.S06C1.15m.3um.B  
 4 G2PA.S02C1.15m.0_2um.B
 5 G2PA.S15C1.15m.3um.C  
 6 G2PA.S17C1.15m.3um.C  
 7 G2PA.S07C1.15m.3um.A  
 8 G2PA.S16C1.15m.0_2um.C
 9 G2PA.S06C1.15m.3um.C  
10 G2PA.S02C1.15m.0_2um.C
# ℹ 49 more rows
…
> allSamples_estCounts <- g2_gather_merged_name_noMissingTaxa_allSamples %>% ungroup() %>% dplyr::group_by(var, tax_id, tax_name, V5) %>% dplyr::summarize(est_counts = sum(value))
`summarise()` has grouped output by 'var', 'tax_id', 'tax_name'. You can override using the `.groups` argument.

#ungroup counts summary data
> g2_summary <- g2_summary %>% ungroup()

> allSamples_estCounts <- allSamples_estCounts %>% ungroup()

#not one million because I already removed NA Pfams
> g2_summary %>% group_by(var, tax_name) %>% summarize(tpm = sum(tpm)) %>% distinct(tpm) %>% ungroup() %>% distinct(tpm)
`summarise()` has grouped output by 'var'. You can override using the `.groups` argument.
# A tibble: 876 × 1
       tpm
     <dbl>
 1 630980.
 2 380292.
 3 719150.
 4 599644.
 5 611931.
 6 667445.
 7 388148.
 8 742882.
 9 608848.
10 635218.
# ℹ 866 more rows
…
