…
> dat_tax_noNA_merged_name_noMissingTaxa %>% filter(is.na(est_counts))
# A tibble: 0 × 19

> dat_tax_noNA_merged_name_noMissingTaxa %>% filter(est_counts == 0)
# A tibble: 0 × 19

> dat_tax_noNA_merged_name_noMissingTaxa %>% filter(is.na(pfam))
# A tibble: 0 × 19

> core <- read_csv("~/MarFERReT.v1.core_genes.csv")

> dat_tax_noNA_merged_name_noMissingTaxa %>% distinct(sample)
# A tibble: 81 × 1
   sample                  
   <chr>                   
 1 G2PA.MS01.abundance.tsv 
 2 G2PA.MS02.abundance.tsv 
 3 G2PA.MS04.abundance.tsv 
 4 G2PA.MS09.abundance.tsv 
 5 G2PA.MS10.abundance.tsv 
 6 G2PA.MS100.abundance.tsv
 7 G2PA.MS101.abundance.tsv
 8 G2PA.MS102.abundance.tsv
 9 G2PA.MS103.abundance.tsv
10 G2PA.MS104.abundance.tsv
# ℹ 71 more rows
# ℹ Use `print(n = ...)` to see more rows
…
> allSamples_estCounts <- dat_tax_noNA_merged_name_noMissingTaxa_allSamples %>% ungroup() %>% dplyr::group_by(sample, tax_id, tax_name, V5) %>% dplyr::summarize(est_counts = sum(est_counts))
`summarise()` has grouped output by 'sample', 'tax_id', 'tax_name'. You can override using the `.groups` argument.

#ungroup counts summary data
> g2Inc_summary <- g2Inc_summary %>% ungroup()

> allSamples_estCounts <- allSamples_estCounts %>% ungroup()

#not one million because I already removed NA Pfams
> g2Inc_summary %>% group_by(sample, tax_name) %>% summarize(tpm = sum(tpm)) %>% distinct(tpm) %>% ungroup() %>% distinct(tpm)
`summarise()` has grouped output by 'sample'. You can override using the `.groups` argument.
# A tibble: 820 × 1
       tpm
     <dbl>
 1 530013.
 2 754702.
 3 466214.
 4 509727.
 5 416951.
 6 757430.
 7 632566.
 8 676963.
 9 430987.
10 596507.
# ℹ 810 more rows
# ℹ Use `print(n = ...)` to see more rows
…
