…
> g1_gather_merged_name_noMissingTaxa %>% filter(is.na(tpm))
# A tibble: 0 × 17

> g1_gather_merged_name_noMissingTaxa %>% filter(tpm == 0)
# A tibble: 0 × 17

> g1_gather_merged_name_noMissingTaxa %>% filter(is.na(V5))
# A tibble: 0 × 17

> core <- read_csv("~/MarFERReT.v1.core_genes.csv")

> g1_gather_merged_name_noMissingTaxa %>% distinct(sample)
# A tibble: 48 × 1
   sample      
   <chr>       
 1 S14C1_C_2200
 2 S11C1_A_1800
 3 S11C1_C_1800
 4 S14C1_B_2200
 5 S15C1_B_200 
 6 S15C1_C_200 
 7 S16C1_A_600 
 8 S16C1_B_600 
 9 S17C1_A_1000
10 S17C1_B_1000
# ℹ 38 more rows
…
> pfamSummary <- pfamSummary %>% group_by(sample, tax_id, tax_name) %>% distinct(V5) %>% summarize(numCorePfams = n())
`summarise()` has grouped output by 'sample', 'tax_id'. You can override using the `.groups` argument.

> core %>% distinct(pfam_id) %>% summarize(n = n())
# A tibble: 1 × 1
      n
  <int>
1   605

> pfamSummary <- pfamSummary %>% ungroup() %>% mutate(propCorePfams = numCorePfams/605)

> pfamSummary %>% write_csv("~/alohaDiel/pfamSummary.csv")

> pfamSummary %>% arrange(desc(propCorePfams))
# A tibble: 31,322 × 5
   sample       tax_id tax_name    numCorePfams propCorePfams
   <chr>         <dbl> <chr>              <int>         <dbl>
 1 S08C1_B_1400   2759 Eukaryota            605         1    
 2 S08C1_B_1400   2864 Dinophyceae          605         1    
 3 S11C1_C_1800   2864 Dinophyceae          605         1    
 4 S18C1_A_1400   2759 Eukaryota            605         1    
 5 S20C1_C_2200   2759 Eukaryota            605         1    
 6 S20C1_C_2200   2864 Dinophyceae          605         1    
 7 S21C1_B_200    2864 Dinophyceae          605         1    
 8 S21C1_C_200    2864 Dinophyceae          605         1    
 9 S30C1_C_600    2864 Dinophyceae          605         1    
10 S06C1_A_600    2864 Dinophyceae          604         0.998
# ℹ 31,312 more rows
…
> g1_gather_merged_name_noMissingTaxa %>% ungroup() %>% distinct(tax_name) %>% nrow()
[1] 25

#for each taxa, sample, and pfam combination, get the total number of counts
> g1_summary <- g1_gather_merged_name_noMissingTaxa %>% ungroup() %>% dplyr::group_by(sample, tax_id, tax_name, V5) %>% dplyr::summarize(tpm = sum(tpm))
`summarise()` has grouped output by 'sample', 'tax_id', 'tax_name'. You can override using the `.groups` argument.

#ungroup counts summary data
> g1_summary <- g1_summary %>% ungroup()

#not one million because I already removed NA Pfams
> g1_summary %>% group_by(sample, tax_name) %>% summarize(tpm = sum(tpm)) %>% distinct(tpm) %>% ungroup() %>% distinct(tpm)
`summarise()` has grouped output by 'sample'. You can override using the `.groups` argument.
# A tibble: 593 × 1
       tpm
     <dbl>
 1 202901.
 2 407341.
 3 662133.
 4 409868.
 5 425776.
 6 737658.
 7 265375.
 8 218081.
 9 192190.
10 792803.
# ℹ 583 more rows
…
