…
> res %>% group_by(V1) %>% summarize(n = n()) %>% filter(n > 1)
# A tibble: 3,499,324 × 2
   V1                                                n
   <chr>                                         <int>
 1 G1PA_S02C1_0_2um_TRINITY_DN1000024_c0_g1_i1_1     2
 2 G1PA_S02C1_0_2um_TRINITY_DN1000031_c0_g1_i1_1     4
 3 G1PA_S02C1_0_2um_TRINITY_DN1000046_c0_g1_i1_3     3
 4 G1PA_S02C1_0_2um_TRINITY_DN1000056_c0_g1_i1_3     2
 5 G1PA_S02C1_0_2um_TRINITY_DN1000095_c0_g1_i1_1     3
 6 G1PA_S02C1_0_2um_TRINITY_DN1000134_c0_g1_i1_1     2
 7 G1PA_S02C1_0_2um_TRINITY_DN1000134_c0_g1_i2_1     2
 8 G1PA_S02C1_0_2um_TRINITY_DN1000139_c0_g1_i1_3     2
 9 G1PA_S02C1_0_2um_TRINITY_DN1000146_c0_g1_i1_2     2
10 G1PA_S02C1_0_2um_TRINITY_DN1000160_c0_g1_i1_1     2
# … with 3,499,314 more rows
…
> g1_gather_merged_name_noMissingTaxa %>% distinct(var)
# A tibble: 47 × 1
   var         
   <chr>       
 1 S02C1_0.2umA
 2 S02C1_0.2umB
 3 S02C1_0.2umC
 4 S02C1_3umA  
 5 S02C1_3umB  
 6 S02C1_3umC  
 7 S04C1_0.2umA
 8 S04C1_0.2umB
 9 S04C1_0.2umC
10 S04C1_3umA  
# ℹ 37 more rows
…
> pfamSummary <- pfamSummary %>% ungroup() %>% mutate(propCorePfams = numCorePfams/605)

> pfamSummary %>% write_csv("~/g1/corePfamSummary.csv")

(base) elainathomas@Elainas-MacBook-Pro-2 g1Surface % scp -P 3004 -i ~/.ssh/id_ed25519  egthomas@frustule.ocean.washington.edu:~/g1/corePfamSummary.csv .
Enter passphrase for key '/Users/elainathomas/.ssh/id_ed25519': 
corePfamSummary.csv                                                                                                                                                       100% 1853KB   1.7MB/s   00:01    


> pfamSummary %>% arrange(desc(propCorePfams))
# A tibble: 30,644 × 5
   var          tax_id tax_name    numCorePfams propCorePfams
   <chr>         <dbl> <chr>              <int>         <dbl>
 1 S02C1_3umA     2864 Dinophyceae          604         0.998
 2 S02C1_3umB     2864 Dinophyceae          604         0.998
 3 S02C1_3umC     2864 Dinophyceae          604         0.998
 4 S04C1_0.2umC   2864 Dinophyceae          604         0.998
 5 S04C1_3umA     2864 Dinophyceae          604         0.998
 6 S04C1_3umB     2864 Dinophyceae          604         0.998
 7 S04C1_3umC     2864 Dinophyceae          604         0.998
 8 S06C1_0.2umB   2864 Dinophyceae          604         0.998
 9 S06C1_0.2umC   2864 Dinophyceae          604         0.998
10 S06C1_3umA     2864 Dinophyceae          604         0.998
# ℹ 30,634 more rows
# ℹ Use `print(n = ...)` to see more rows
…
> g1_gather_merged_name_noMissingTaxa %>% ungroup() %>% distinct(tax_name) %>% nrow()
[1] 53

#for each taxa, sample, and pfam combination, get the total number of counts
> g1_summary <- g1_gather_merged_name_noMissingTaxa %>% ungroup() %>% dplyr::group_by(var, tax_id, tax_name, V5) %>% dplyr::summarize(tpm = sum(tpm))
`summarise()` has grouped output by 'var', 'tax_id', 'tax_name'. You can override using the `.groups` argument.

#ungroup counts summary data
> g1_summary <- g1_summary %>% ungroup()

#not one million because I already removed NA Pfams
> g1_summary %>% group_by(var, tax_name) %>% summarize(tpm = sum(tpm)) %>% distinct(tpm) %>% ungroup() %>% distinct(tpm)
`summarise()` has grouped output by 'var'. You can override using the `.groups` argument.
# A tibble: 989 × 1
       tpm
     <dbl>
 1 563184.
 2 709772.
 3 495997.
 4 656308.
 5 544851.
 6 809099.
 7 677747.
 8 529915.
 9 718544.
10 777672.
# ℹ 979 more rows
…
