…
> pfamSummary <- pfamSummary %>% group_by(sample, tax_id, tax_name) %>% distinct(V5) %>% summarize(numCorePfams = n())
`summarise()` has grouped output by 'sample', 'tax_id'. You can override using the `.groups` argument.

> core %>% distinct(pfam_id) %>% summarize(n = n())
# A tibble: 1 × 1
      n
  <int>
1   605

> pfamSummary <- pfamSummary %>% ungroup() %>% mutate(propCorePfams = numCorePfams/605)

> pfamSummary %>% write_csv("~/g3Diel/pfamSummary.csv")

> pfamSummary %>% arrange(desc(propCorePfams))                                
# A tibble: 26,189 × 5
   sample            tax_id tax_name    numCorePfams propCorePfams
   <chr>              <dbl> <chr>              <int>         <dbl>
 1 G3PA.diel.S4C11.A   2864 Dinophyceae          604         0.998
 2 G3PA.diel.S4C11.B   2759 Eukaryota            604         0.998
 3 G3PA.diel.S4C11.B   2864 Dinophyceae          604         0.998
 4 G3PA.diel.S4C11.C   2759 Eukaryota            604         0.998
 5 G3PA.diel.S4C11.C   2864 Dinophyceae          604         0.998
 6 G3PA.diel.S4C13.B   2864 Dinophyceae          604         0.998
 7 G3PA.diel.S4C13.C   2759 Eukaryota            604         0.998
 8 G3PA.diel.S4C13.C   2864 Dinophyceae          604         0.998
 9 G3PA.diel.S4C15.A   2759 Eukaryota            604         0.998
10 G3PA.diel.S4C15.A   2864 Dinophyceae          604         0.998
# ℹ 26,179 more rows
# ℹ Use `print(n = ...)` to see more rows
…
> str(g3_gather_merged_name_noMissingTaxa$tpm)
 num [1:30477712] 6.3 34.78 22.25 3.28 3.15 ...

#for each taxa, sample, and pfam combination, get the total number of counts
> g3_summary <- g3_gather_merged_name_noMissingTaxa %>% ungroup() %>% dplyr::group_by(sample, tax_id, tax_name, V5) %>% dplyr::summarize(tpm = sum(tpm))
`summarise()` has grouped output by 'sample', 'tax_id', 'tax_name'. You can override using the `.groups` argument.

#ungroup counts summary data
> g3_summary <- g3_summary %>% ungroup()

#not one million because I already removed NA Pfams
> g3_summary %>% group_by(sample, tax_name) %>% summarize(tpm = sum(tpm)) %>% distinct(tpm) %>% ungroup() %>% distinct(tpm)
`summarise()` has grouped output by 'sample'. You can override using the `.groups` argument.
# A tibble: 564 × 1
       tpm
     <dbl>
 1 545859.
 2 782491.
 3 434526.
 4 461358.
 5 794847.
 6 184678.
 7 749763.
 8 663422.
 9 679096.
10 685783.
# ℹ 554 more rows
# ℹ Use `print(n = ...)` to see more rows
…
